[{"page":1,"pages":301,"per_page":"50","total":15048},[{"indicator":{"id":"SP.POP.TOTL","value":"Population, total"},"country":{"id":"1A","value":"Arab World"},"value":"345054176","decimal":"0","date":"2009"},{"indicator":{"id":"SP.POP.TOTL","value":"Population, total"},"country":{"id":"1A","value":"Arab World"},"value":"336886468","decimal":"0","date":"2008"},{"indicator":{"id":"SP.POP.TOTL","value":"Population, total"},"country":{"id":"1A","value":"Arab World"},"value":"328766559","decimal":"0","date":"2007"},{"indicator":{"id":"SP.POP.TOTL","value":"Population, total"},"country":{"id":"1A","value":"Arab World"},"value":"320906736","decimal":"0","date":"2006"},{"indicator":{"id":"SP.POP.TOTL","value":"Population, total"},"country":{"id":"1A","value":"Arab World"},"value":"313430911","decimal":"0","date":"2005"},{"indicator":{"id":"SP.POP.TOTL","value":"Population, total"},"country":{"id":"1A","value":"Arab World"},"value":"306387415","decimal":"0","date":"2004"},{"indicator":{"id":"SP.POP.TOTL","value":"Population, total"},"country":{"id":"1A","value":"Arab World"},"value":"299731956","decimal":"0","date":"2003"},{"indicator":{"id":"SP.POP.TOTL","value":"Population, total"},"country":{"id":"1A","value":"Arab World"},"value":"293402563","decimal":"0","date":"2002"},{"indicator":{"id":"SP.POP.TOTL","value":"Population, total"},"country":{"id":"1A","value":"Arab World"},"value":"287291826","decimal":"0","date":"2001"},{"indicator":{"id":"SP.POP.TOTL","value":"Population, total"},"country":{"id":"1A","value":"Arab World"},"value":"281326250","decimal":"0","date":"2000"},{"indicator":{"id":"SP.POP.TOTL","value":"Population, total"},"country":{"id":"1A","value":"Arab World"},"value":"275503565","decimal":"0","date":"1999"},{"indicator":{"id":"SP.POP.TOTL","value":"Population, total"},"country":{"id":"1A","value":"Arab World"},"value":"269795252","decimal":"0","date":"1998"},{"indicator":{"id":"SP.POP.TOTL","value":"Population, total"},"country":{"id":"1A","value":"Arab World"},"value":"264153948","decimal":"0","date":"1997"},{"indicator":{"id":"SP.POP.TOTL","value":"Population, total"},"country":{"id":"1A","value":"Arab World"},"value":"258423164","decimal":"0","date":"1996"},{"indicator":{"id":"SP.POP.TOTL","value":"Population, total"},"country":{"id":"1A","value":"Arab World"},"value":"252591048","decimal":"0","date":"1995"},{"indicator":{"id":"SP.POP.TOTL","value":"Population, total"},"country":{"id":"1A","value":"Arab World"},"value":"244893420","decimal":"0","date":"1994"},{"indicator":{"id":"SP.POP.TOTL","value":"Population, total"},"country":{"id":"1A","value":"Arab World"},"value":"238628852","decimal":"0","date":"1993"},{"indicator":{"id":"SP.POP.TOTL","value":"Population, total"},"country":{"id":"1A","value":"Arab World"},"value":"232417246","decimal":"0","date":"1992"},{"indicator":{"id":"SP.POP.TOTL","value":"Population, total"},"country":{"id":"1A","value":"Arab World"},"value":"228171034","decimal":"0","date":"1991"},{"indicator":{"id":"SP.POP.TOTL","value":"Population, total"},"country":{"id":"1A","value":"Arab World"},"value":"222117305","decimal":"0","date":"1990"},{"indicator":{"id":"SP.POP.TOTL","value":"Population, total"},"country":{"id":"1A","value":"Arab World"},"value":"214250542","decimal":"0","date":"1989"},{"indicator":{"id":"SP.POP.TOTL","value":"Population, total"},"country":{"id":"1A","value":"Arab World"},"value":"208546282","decimal":"0","date":"1988"},{"indicator":{"id":"SP.POP.TOTL","value":"Population, total"},"country":{"id":"1A","value":"Arab World"},"value":"202851923","decimal":"0","date":"1987"},{"indicator":{"id":"SP.POP.TOTL","value":"Population, total"},"country":{"id":"1A","value":"Arab World"},"value":"197202142","decimal":"0","date":"1986"},{"indicator":{"id":"SP.POP.TOTL","value":"Population, total"},"country":{"id":"1A","value":"Arab World"},"value":"191564251","decimal":"0","date":"1985"},{"indicator":{"id":"SP.POP.TOTL","value":"Population, total"},"country":{"id":"1A","value":"Arab World"},"value":"186005735","decimal":"0","date":"1984"},{"indicator":{"id":"SP.POP.TOTL","value":"Population, total"},"country":{"id":"1A","value":"Arab World"},"value":"180606318","decimal":"0","date":"1983"},{"indicator":{"id":"SP.POP.TOTL","value":"Population, total"},"country":{"id":"1A","value":"Arab World"},"value":"175237742","decimal":"0","date":"1982"},{"indicator":{"id":"SP.POP.TOTL","value":"Population, total"},"country":{"id":"1A","value":"Arab World"},"value":"169926632","decimal":"0","date":"1981"},{"indicator":{"id":"SP.POP.TOTL","value":"Population, total"},"country":{"id":"1A","value":"Arab World"},"value":"164670713","decimal":"0","date":"1980"},{"indicator":{"id":"SP.POP.TOTL","value":"Population, total"},"country":{"id":"1A","value":"Arab World"},"value":"159455867","decimal":"0","date":"1979"},{"indicator":{"id":"SP.POP.TOTL","value":"Population, total"},"country":{"id":"1A","value":"Arab World"},"value":"154303887","decimal":"0","date":"1978"},{"indicator":{"id":"SP.POP.TOTL","value":"Population, total"},"country":{"id":"1A","value":"Arab World"},"value":"149296257","decimal":"0","date":"1977"},{"indicator":{"id":"SP.POP.TOTL","value":"Population, total"},"country":{"id":"1A","value":"Arab World"},"value":"144542039","decimal":"0","date":"1976"},{"indicator":{"id":"SP.POP.TOTL","value":"Population, total"},"country":{"id":"1A","value":"Arab World"},"value":"140114424","decimal":"0","date":"1975"},{"indicator":{"id":"SP.POP.TOTL","value":"Population, total"},"country":{"id":"1A","value":"Arab World"},"value":"136044481","decimal":"0","date":"1974"},{"indicator":{"id":"SP.POP.TOTL","value":"Population, total"},"country":{"id":"1A","value":"Arab World"},"value":"132298955","decimal":"0","date":"1973"},{"indicator":{"id":"SP.POP.TOTL","value":"Population, total"},"country":{"id":"1A","value":"Arab World"},"value":"128801209","decimal":"0","date":"1972"},{"indicator":{"id":"SP.POP.TOTL","value":"Population, total"},"country":{"id":"1A","value":"Arab World"},"value":"125439089","decimal":"0","date":"1971"},{"indicator":{"id":"SP.POP.TOTL","value":"Population, total"},"country":{"id":"1A","value":"Arab World"},"value":"122128175","decimal":"0","date":"1970"},{"indicator":{"id":"SP.POP.TOTL","value":"Population, total"},"country":{"id":"1A","value":"Arab World"},"value":"118823872","decimal":"0","date":"1969"},{"indicator":{"id":"SP.POP.TOTL","value":"Population, total"},"country":{"id":"1A","value":"Arab World"},"value":"115557094","decimal":"0","date":"1968"},{"indicator":{"id":"SP.POP.TOTL","value":"Population, total"},"country":{"id":"1A","value":"Arab World"},"value":"112342573","decimal":"0","date":"1967"},{"indicator":{"id":"SP.POP.TOTL","value":"Population, total"},"country":{"id":"1A","value":"Arab World"},"value":"109210743","decimal":"0","date":"1966"},{"indicator":{"id":"SP.POP.TOTL","value":"Population, total"},"country":{"id":"1A","value":"Arab World"},"value":"106184090","decimal":"0","date":"1965"},{"indicator":{"id":"SP.POP.TOTL","value":"Population, total"},"country":{"id":"1A","value":"Arab World"},"value":"103263656","decimal":"0","date":"1964"},{"indicator":{"id":"SP.POP.TOTL","value":"Population, total"},"country":{"id":"1A","value":"Arab World"},"value":"100439395","decimal":"0","date":"1963"},{"indicator":{"id":"SP.POP.TOTL","value":"Population, total"},"country":{"id":"1A","value":"Arab World"},"value":"97711191","decimal":"0","date":"1962"},{"indicator":{"id":"SP.POP.TOTL","value":"Population, total"},"country":{"id":"1A","value":"Arab World"},"value":"95077992","decimal":"0","date":"1961"},{"indicator":{"id":"SP.POP.TOTL","value":"Population, total"},"country":{"id":"1A","value":"Arab World"},"value":"92540534","decimal":"0","date":"1960"}]]